Analyzing returns of financial stocks vs SP500 · Martin's Portfolio
…
Returns of financial sector stocks

In this analysis we would like to compare the return on several stocks in the financial services sector versus the performance of the broader S&P500 index.

We start our analysis by collecting data on all the listed stocks on the NYSE.

nyse <- read_csv(here::here("data","nyse.csv"))
nyse

## # A tibble: 508 x 6
##    symbol name          ipo_year sector    industry           summary_quote     
##    <chr>  <chr>         <chr>    <chr>     <chr>              <chr>             
##  1 MMM    3M Company    n/a      Health C~ Medical/Dental In~ https://www.nasda~
##  2 ABB    ABB Ltd       n/a      Consumer~ Electrical Produc~ https://www.nasda~
##  3 ABT    Abbott Labor~ n/a      Health C~ Major Pharmaceuti~ https://www.nasda~
##  4 ABBV   AbbVie Inc.   2012     Health C~ Major Pharmaceuti~ https://www.nasda~
##  5 ACN    Accenture plc 2001     Miscella~ Business Services  https://www.nasda~
##  6 AAP    Advance Auto~ n/a      Consumer~ Other Specialty S~ https://www.nasda~
##  7 AFL    Aflac Incorp~ n/a      Finance   Accident &Health ~ https://www.nasda~
##  8 A      Agilent Tech~ 1999     Capital ~ Biotechnology: La~ https://www.nasda~
##  9 AEM    Agnico Eagle~ n/a      Basic In~ Precious Metals    https://www.nasda~
## 10 APD    Air Products~ n/a      Basic In~ Major Chemicals    https://www.nasda~
## # ... with 498 more rows
…
Financials <- nyse %>% 
  filter(sector=="Finance")
Financials

## # A tibble: 97 x 6
##    symbol name              ipo_year sector  industry       summary_quote       
##    <chr>  <chr>             <chr>    <chr>   <chr>          <chr>               
##  1 AFL    Aflac Incorporat~ n/a      Finance Accident &Hea~ https://www.nasdaq.~
##  2 Y      Alleghany Corpor~ n/a      Finance Property-Casu~ https://www.nasdaq.~
##  3 ALL    Allstate Corpora~ n/a      Finance Property-Casu~ https://www.nasdaq.~
##  4 ALLY   Ally Financial I~ 2014     Finance Major Banks    https://www.nasdaq.~
##  5 AXP    American Express~ n/a      Finance Finance: Cons~ https://www.nasdaq.~
##  6 AIG    American Interna~ n/a      Finance Property-Casu~ https://www.nasdaq.~
##  7 AMP    AMERIPRISE FINAN~ n/a      Finance Investment Ma~ https://www.nasdaq.~
##  8 AON    Aon plc           n/a      Finance Specialty Ins~ https://www.nasdaq.~
##  9 APO    Apollo Global Ma~ 2011     Finance Investment Ma~ https://www.nasdaq.~
## 10 AJG    Arthur J. Gallag~ n/a      Finance Specialty Ins~ https://www.nasdaq.~
## # ... with 87 more rows
…
