…
# default figure size
knitr::opts_chunk$set(
  fig.width=6.75, 
  fig.height=6.75,
  fig.align = "center"
)

Returns of financial stocks

You may find useful the material on finance data sources.

nyse <- read_csv(here::here("data","nyse.csv"))
nyse

## # A tibble: 508 x 6
##    symbol name          ipo_year sector    industry           summary_quote     
##    <chr>  <chr>         <chr>    <chr>     <chr>              <chr>             
##  1 MMM    3M Company    n/a      Health C~ Medical/Dental In~ https://www.nasda~
##  2 ABB    ABB Ltd       n/a      Consumer~ Electrical Produc~ https://www.nasda~
##  3 ABT    Abbott Labor~ n/a      Health C~ Major Pharmaceuti~ https://www.nasda~
##  4 ABBV   AbbVie Inc.   2012     Health C~ Major Pharmaceuti~ https://www.nasda~
##  5 ACN    Accenture plc 2001     Miscella~ Business Services  https://www.nasda~
##  6 AAP    Advance Auto~ n/a      Consumer~ Other Specialty S~ https://www.nasda~
##  7 AFL    Aflac Incorp~ n/a      Finance   Accident &Health ~ https://www.nasda~
##  8 A      Agilent Tech~ 1999     Capital ~ Biotechnology: La~ https://www.nasda~
##  9 AEM    Agnico Eagle~ n/a      Basic In~ Precious Metals    https://www.nasda~
## 10 APD    Air Products~ n/a      Basic In~ Major Chemicals    https://www.nasda~
## # ... with 498 more rows
…
summ_monthly_returns_plot <- myStocks_returns_monthly %>%
  filter(date >= "2017-01-01")  %>%
  group_by(symbol) 
 summ_monthly_returns_plot  

## # A tibble: 396 x 3
## # Groups:   symbol [9]
##    symbol date       monthly_returns
##    <chr>  <date>               <dbl>
##  1 AAPL   2017-01-31       0.0477   
##  2 AAPL   2017-02-28       0.134    
##  3 AAPL   2017-03-31       0.0487   
##  4 AAPL   2017-04-28      -0.0000697
##  5 AAPL   2017-05-31       0.0678   
##  6 AAPL   2017-06-30      -0.0572   
##  7 AAPL   2017-07-31       0.0327   
##  8 AAPL   2017-08-31       0.107    
##  9 AAPL   2017-09-29      -0.0602   
## 10 AAPL   2017-10-31       0.0968   
## # ... with 386 more rows
…
