ARatings and movie budgets · Martin's Portfolio
…
Genre_ratings <- movies %>%
  select(genre,rating)
Genre_avgrating <- aggregate(Genre_ratings$rating, list(Genre_ratings$genre), mean)
Genre_Stdevrating <- aggregate(Genre_ratings$rating, list(Genre_ratings$genre), sd)
Genre_avgrating$Standarddev <- Genre_Stdevrating[, 2]
Genre_Minrating <- aggregate(Genre_ratings$rating, list(Genre_ratings$genre), min)
Genre_avgrating$Min <- Genre_Minrating[, 2]
Genre_Maxrating <- aggregate(Genre_ratings$rating, list(Genre_ratings$genre), max)
Genre_avgrating$Max <- Genre_Maxrating[, 2]
Genre_Medianrating <- aggregate(Genre_ratings$rating, list(Genre_ratings$genre), median)
Genre_avgrating$Median <- Genre_Medianrating[, 2]
print(Genre_ratings)

## # A tibble: 2,961 x 2
##    genre     rating
##    <chr>      <dbl>
##  1 Action       7.9
##  2 Drama        7.7
##  3 Action       7  
##  4 Action       8.1
##  5 Action       9  
##  6 Action       6.5
##  7 Action       8.7
##  8 Action       7.5
##  9 Action       8.5
## 10 Adventure    7.2
## # ... with 2,951 more rows
…
